{"failedCount":0,"prefixedPath":"classpath:api\/users\/User_Get.feature","packageQualifiedName":"api.users.User_Get","loopIndex":-1,"relativePath":"api\/users\/User_Get.feature","scenarioResults":[{"sectionIndex":0,"stepResults":[{"result":{"nanos":325600,"startTime":1720699176115,"endTime":1720699176115,"millis":0.3256,"status":"passed"},"step":{"line":5,"prefix":"Given","index":0,"text":"url baseURL"},"stepLog":"17:29:36.114 karate.env system property was: null \n"},{"result":{"nanos":526900,"startTime":1720699176116,"endTime":1720699176117,"millis":0.5269,"status":"passed"},"step":{"line":6,"prefix":"And","index":1,"text":"path 'users'"}},{"result":{"nanos":3395000,"startTime":1720699176116,"endTime":1720699176119,"millis":3.395,"status":"passed"},"step":{"line":7,"prefix":"And","index":2,"text":"param page = 2"}},{"result":{"nanos":81810700,"startTime":1720699176120,"endTime":1720699176202,"millis":81.8107,"status":"passed"},"step":{"line":8,"prefix":"When","index":3,"text":"method GET"},"stepLog":"17:29:36.126 request:\n1 > GET https:\/\/reqres.in\/api\/users?page=2\n1 > Host: reqres.in\n1 > Connection: Keep-Alive\n1 > User-Agent: Apache-HttpClient\/4.5.14 (Java\/21.0.3)\n1 > Accept-Encoding: gzip,deflate\n\n\n17:29:36.195 response time in milliseconds: 56\n1 < 200\n1 < Date: Thu, 11 Jul 2024 11:59:36 GMT\n1 < Content-Type: application\/json; charset=utf-8\n1 < Transfer-Encoding: chunked\n1 < Connection: keep-alive\n1 < Report-To: {\"group\":\"heroku-nel\",\"max_age\":3600,\"endpoints\":[{\"url\":\"https:\/\/nel.heroku.com\/reports?ts=1720689010&sid=c4c9725f-1ab0-44d8-820f-430df2718e11&s=9hKId5j6invUHV2ieTPu6IEmFsBAw5M9GXEEKfEE%2Fq8%3D\"}]}\n1 < Reporting-Endpoints: heroku-nel=https:\/\/nel.heroku.com\/reports?ts=1720689010&sid=c4c9725f-1ab0-44d8-820f-430df2718e11&s=9hKId5j6invUHV2ieTPu6IEmFsBAw5M9GXEEKfEE%2Fq8%3D\n1 < Nel: {\"report_to\":\"heroku-nel\",\"max_age\":3600,\"success_fraction\":0.005,\"failure_fraction\":0.05,\"response_headers\":[\"Via\"]}\n1 < X-Powered-By: Express\n1 < Access-Control-Allow-Origin: *\n1 < Etag: W\/\"406-ut0vzoCuidvyMf8arZpMpJ6ZRDw\"\n1 < Via: 1.1 vegur\n1 < Cache-Control: max-age=14400\n1 < CF-Cache-Status: HIT\n1 < Age: 2922\n1 < Vary: Accept-Encoding\n1 < Server: cloudflare\n1 < CF-RAY: 8a18a0dc2ae641a5-BOM\n{\"page\":2,\"per_page\":6,\"total\":12,\"total_pages\":2,\"data\":[{\"id\":7,\"email\":\"michael.lawson@reqres.in\",\"first_name\":\"Michael\",\"last_name\":\"Lawson\",\"avatar\":\"https:\/\/reqres.in\/img\/faces\/7-image.jpg\"},{\"id\":8,\"email\":\"lindsay.ferguson@reqres.in\",\"first_name\":\"Lindsay\",\"last_name\":\"Ferguson\",\"avatar\":\"https:\/\/reqres.in\/img\/faces\/8-image.jpg\"},{\"id\":9,\"email\":\"tobias.funke@reqres.in\",\"first_name\":\"Tobias\",\"last_name\":\"Funke\",\"avatar\":\"https:\/\/reqres.in\/img\/faces\/9-image.jpg\"},{\"id\":10,\"email\":\"byron.fields@reqres.in\",\"first_name\":\"Byron\",\"last_name\":\"Fields\",\"avatar\":\"https:\/\/reqres.in\/img\/faces\/10-image.jpg\"},{\"id\":11,\"email\":\"george.edwards@reqres.in\",\"first_name\":\"George\",\"last_name\":\"Edwards\",\"avatar\":\"https:\/\/reqres.in\/img\/faces\/11-image.jpg\"},{\"id\":12,\"email\":\"rachel.howell@reqres.in\",\"first_name\":\"Rachel\",\"last_name\":\"Howell\",\"avatar\":\"https:\/\/reqres.in\/img\/faces\/12-image.jpg\"}],\"support\":{\"url\":\"https:\/\/reqres.in\/#support-heading\",\"text\":\"To keep ReqRes free, contributions towards server costs are appreciated!\"}}\n\n"},{"result":{"nanos":28300,"startTime":1720699176202,"endTime":1720699176202,"millis":0.0283,"status":"passed"},"step":{"line":9,"prefix":"Then","index":4,"text":"status 200"}}],"line":4,"description":"","durationMillis":86.0865,"failed":false,"tags":["execute"],"executorName":"main","name":"Get all user details","startTime":1720699176111,"refId":"[1:4]","endTime":1720699176202,"exampleIndex":-1},{"sectionIndex":1,"stepResults":[{"result":{"nanos":234900,"startTime":1720699176217,"endTime":1720699176217,"millis":0.2349,"status":"passed"},"step":{"line":13,"prefix":"Given","index":0,"text":"url baseURL"},"stepLog":"17:29:36.215 karate.env system property was: null \n"},{"result":{"nanos":589600,"startTime":1720699176217,"endTime":1720699176218,"millis":0.5896,"status":"passed"},"step":{"line":14,"prefix":"And","index":1,"text":"path 'users\/2'"}},{"result":{"nanos":150291500,"startTime":1720699176218,"endTime":1720699176368,"millis":150.2915,"status":"passed"},"step":{"line":15,"prefix":"When","index":2,"text":"method GET"},"stepLog":"17:29:36.220 request:\n1 > GET https:\/\/reqres.in\/api\/users\/2\n1 > Host: reqres.in\n1 > Connection: Keep-Alive\n1 > User-Agent: Apache-HttpClient\/4.5.14 (Java\/21.0.3)\n1 > Accept-Encoding: gzip,deflate\n\n\n17:29:36.367 response time in milliseconds: 146\n1 < 200\n1 < Date: Thu, 11 Jul 2024 11:59:36 GMT\n1 < Content-Type: application\/json; charset=utf-8\n1 < Transfer-Encoding: chunked\n1 < Connection: keep-alive\n1 < Report-To: {\"group\":\"heroku-nel\",\"max_age\":3600,\"endpoints\":[{\"url\":\"https:\/\/nel.heroku.com\/reports?ts=1720687209&sid=c4c9725f-1ab0-44d8-820f-430df2718e11&s=2RdJ9OOcnRGArzrtIZtUr4ec3ZdEBNwcrg6l85cf8Ks%3D\"}]}\n1 < Reporting-Endpoints: heroku-nel=https:\/\/nel.heroku.com\/reports?ts=1720687209&sid=c4c9725f-1ab0-44d8-820f-430df2718e11&s=2RdJ9OOcnRGArzrtIZtUr4ec3ZdEBNwcrg6l85cf8Ks%3D\n1 < Nel: {\"report_to\":\"heroku-nel\",\"max_age\":3600,\"success_fraction\":0.005,\"failure_fraction\":0.05,\"response_headers\":[\"Via\"]}\n1 < X-Powered-By: Express\n1 < Access-Control-Allow-Origin: *\n1 < Etag: W\/\"118-pbdwwFo9SKNhD3Lx5iHJyngpq00\"\n1 < Via: 1.1 vegur\n1 < Cache-Control: max-age=14400\n1 < CF-Cache-Status: HIT\n1 < Age: 4764\n1 < Vary: Accept-Encoding\n1 < Server: cloudflare\n1 < CF-RAY: 8a18a0dd494c3b16-BOM\n{\"data\":{\"id\":2,\"email\":\"janet.weaver@reqres.in\",\"first_name\":\"Janet\",\"last_name\":\"Weaver\",\"avatar\":\"https:\/\/reqres.in\/img\/faces\/2-image.jpg\"},\"support\":{\"url\":\"https:\/\/reqres.in\/#support-heading\",\"text\":\"To keep ReqRes free, contributions towards server costs are appreciated!\"}}\n\n"},{"result":{"nanos":17300,"startTime":1720699176369,"endTime":1720699176369,"millis":0.0173,"status":"passed"},"step":{"line":16,"prefix":"Then","index":3,"text":"status 200"}}],"line":12,"description":"","durationMillis":151.1333,"failed":false,"tags":["execute"],"executorName":"main","name":"Get specific user details by id","startTime":1720699176215,"refId":"[2:12]","endTime":1720699176369,"exampleIndex":-1},{"sectionIndex":2,"stepResults":[{"result":{"nanos":295300,"startTime":1720699176379,"endTime":1720699176379,"millis":0.2953,"status":"passed"},"step":{"line":22,"prefix":"Given","index":0,"text":"url baseURL"},"stepLog":"17:29:36.378 karate.env system property was: null \n"},{"result":{"nanos":524700,"startTime":1720699176379,"endTime":1720699176380,"millis":0.5247,"status":"passed"},"step":{"line":23,"prefix":"And","index":1,"text":"path 'users\/23'"}},{"result":{"nanos":729575500,"startTime":1720699176380,"endTime":1720699177110,"millis":729.5755,"status":"passed"},"step":{"line":24,"prefix":"When","index":2,"text":"method GET"},"stepLog":"17:29:36.382 request:\n1 > GET https:\/\/reqres.in\/api\/users\/23\n1 > Host: reqres.in\n1 > Connection: Keep-Alive\n1 > User-Agent: Apache-HttpClient\/4.5.14 (Java\/21.0.3)\n1 > Accept-Encoding: gzip,deflate\n\n\n17:29:37.103 response time in milliseconds: 719\n1 < 404\n1 < Date: Thu, 11 Jul 2024 11:59:37 GMT\n1 < Content-Type: application\/json; charset=utf-8\n1 < Content-Length: 2\n1 < Connection: keep-alive\n1 < Report-To: {\"group\":\"heroku-nel\",\"max_age\":3600,\"endpoints\":[{\"url\":\"https:\/\/nel.heroku.com\/reports?ts=1720699177&sid=c4c9725f-1ab0-44d8-820f-430df2718e11&s=qKAs1Ld%2FMrZ1tWJ8543gkJt9sRbD2MCiwrWkez9Lc5I%3D\"}]}\n1 < Reporting-Endpoints: heroku-nel=https:\/\/nel.heroku.com\/reports?ts=1720699177&sid=c4c9725f-1ab0-44d8-820f-430df2718e11&s=qKAs1Ld%2FMrZ1tWJ8543gkJt9sRbD2MCiwrWkez9Lc5I%3D\n1 < Nel: {\"report_to\":\"heroku-nel\",\"max_age\":3600,\"success_fraction\":0.005,\"failure_fraction\":0.05,\"response_headers\":[\"Via\"]}\n1 < X-Powered-By: Express\n1 < Access-Control-Allow-Origin: *\n1 < Etag: W\/\"2-vyGp6PvFo4RvsFtPoIWeCReyIC8\"\n1 < Via: 1.1 vegur\n1 < Cache-Control: max-age=14400\n1 < CF-Cache-Status: EXPIRED\n1 < Vary: Accept-Encoding\n1 < Server: cloudflare\n1 < CF-RAY: 8a18a0de4b453be0-BOM\n{}\n\n"},{"result":{"nanos":27600,"startTime":1720699177110,"endTime":1720699177110,"millis":0.0276,"status":"passed"},"step":{"line":25,"prefix":"Then","index":3,"text":"status 404"}}],"line":21,"description":"","durationMillis":730.4231,"failed":false,"tags":["execute"],"executorName":"main","name":"Get empty user details","startTime":1720699176377,"refId":"[3:21]","endTime":1720699177110,"exampleIndex":-1},{"sectionIndex":3,"stepResults":[{"result":{"nanos":505600,"startTime":1720699177126,"endTime":1720699177127,"millis":0.5056,"status":"passed"},"step":{"line":30,"prefix":"Given","index":0,"text":"url baseURL"},"stepLog":"17:29:37.125 karate.env system property was: null \n"},{"result":{"nanos":245000,"startTime":1720699177127,"endTime":1720699177127,"millis":0.245,"status":"passed"},"step":{"line":31,"prefix":"And","index":1,"text":"path 'users'"}},{"result":{"nanos":701800,"startTime":1720699177127,"endTime":1720699177128,"millis":0.7018,"status":"passed"},"step":{"line":32,"prefix":"And","index":2,"text":"param delay = 3"}},{"result":{"nanos":3721269300,"startTime":1720699177128,"endTime":1720699180849,"millis":3721.2693,"status":"passed"},"step":{"line":33,"prefix":"When","index":3,"text":"method GET"},"stepLog":"17:29:37.130 request:\n1 > GET https:\/\/reqres.in\/api\/users?delay=3\n1 > Host: reqres.in\n1 > Connection: Keep-Alive\n1 > User-Agent: Apache-HttpClient\/4.5.14 (Java\/21.0.3)\n1 > Accept-Encoding: gzip,deflate\n\n\n17:29:40.844 response time in milliseconds: 3712\n1 < 200\n1 < Date: Thu, 11 Jul 2024 11:59:40 GMT\n1 < Content-Type: application\/json; charset=utf-8\n1 < Transfer-Encoding: chunked\n1 < Connection: keep-alive\n1 < Report-To: {\"group\":\"heroku-nel\",\"max_age\":3600,\"endpoints\":[{\"url\":\"https:\/\/nel.heroku.com\/reports?ts=1720699177&sid=c4c9725f-1ab0-44d8-820f-430df2718e11&s=qKAs1Ld%2FMrZ1tWJ8543gkJt9sRbD2MCiwrWkez9Lc5I%3D\"}]}\n1 < Reporting-Endpoints: heroku-nel=https:\/\/nel.heroku.com\/reports?ts=1720699177&sid=c4c9725f-1ab0-44d8-820f-430df2718e11&s=qKAs1Ld%2FMrZ1tWJ8543gkJt9sRbD2MCiwrWkez9Lc5I%3D\n1 < Nel: {\"report_to\":\"heroku-nel\",\"max_age\":3600,\"success_fraction\":0.005,\"failure_fraction\":0.05,\"response_headers\":[\"Via\"]}\n1 < X-Powered-By: Express\n1 < Access-Control-Allow-Origin: *\n1 < Etag: W\/\"3e4-2RLXvr5wTg9YQ6aH95CkYoFNuO8\"\n1 < Via: 1.1 vegur\n1 < CF-Cache-Status: DYNAMIC\n1 < Server: cloudflare\n1 < CF-RAY: 8a18a0e26f0346a7-BOM\n{\"page\":1,\"per_page\":6,\"total\":12,\"total_pages\":2,\"data\":[{\"id\":1,\"email\":\"george.bluth@reqres.in\",\"first_name\":\"George\",\"last_name\":\"Bluth\",\"avatar\":\"https:\/\/reqres.in\/img\/faces\/1-image.jpg\"},{\"id\":2,\"email\":\"janet.weaver@reqres.in\",\"first_name\":\"Janet\",\"last_name\":\"Weaver\",\"avatar\":\"https:\/\/reqres.in\/img\/faces\/2-image.jpg\"},{\"id\":3,\"email\":\"emma.wong@reqres.in\",\"first_name\":\"Emma\",\"last_name\":\"Wong\",\"avatar\":\"https:\/\/reqres.in\/img\/faces\/3-image.jpg\"},{\"id\":4,\"email\":\"eve.holt@reqres.in\",\"first_name\":\"Eve\",\"last_name\":\"Holt\",\"avatar\":\"https:\/\/reqres.in\/img\/faces\/4-image.jpg\"},{\"id\":5,\"email\":\"charles.morris@reqres.in\",\"first_name\":\"Charles\",\"last_name\":\"Morris\",\"avatar\":\"https:\/\/reqres.in\/img\/faces\/5-image.jpg\"},{\"id\":6,\"email\":\"tracey.ramos@reqres.in\",\"first_name\":\"Tracey\",\"last_name\":\"Ramos\",\"avatar\":\"https:\/\/reqres.in\/img\/faces\/6-image.jpg\"}],\"support\":{\"url\":\"https:\/\/reqres.in\/#support-heading\",\"text\":\"To keep ReqRes free, contributions towards server costs are appreciated!\"}}\n\n"},{"result":{"nanos":40500,"startTime":1720699180850,"endTime":1720699180850,"millis":0.0405,"status":"passed"},"step":{"line":34,"prefix":"Then","index":4,"text":"status 200"}}],"line":29,"description":"","durationMillis":3722.7622,"failed":false,"tags":["execute"],"executorName":"main","name":"Get delaying user details","startTime":1720699177123,"refId":"[4:29]","endTime":1720699180850,"exampleIndex":-1},{"sectionIndex":4,"stepResults":[{"result":{"nanos":399100,"startTime":1720699180873,"endTime":1720699180873,"millis":0.3991,"status":"passed"},"step":{"line":39,"prefix":"Given","index":0,"text":"url baseURL"},"stepLog":"17:29:40.870 karate.env system property was: null \n"},{"result":{"nanos":893000,"startTime":1720699180873,"endTime":1720699180874,"millis":0.893,"status":"passed"},"step":{"line":40,"prefix":"And","index":1,"text":"path 'unknown'"}},{"result":{"nanos":66338400,"startTime":1720699180874,"endTime":1720699180940,"millis":66.3384,"status":"passed"},"step":{"line":41,"prefix":"When","index":2,"text":"method GET"},"stepLog":"17:29:40.876 request:\n1 > GET https:\/\/reqres.in\/api\/unknown\n1 > Host: reqres.in\n1 > Connection: Keep-Alive\n1 > User-Agent: Apache-HttpClient\/4.5.14 (Java\/21.0.3)\n1 > Accept-Encoding: gzip,deflate\n\n\n17:29:40.937 response time in milliseconds: 58\n1 < 200\n1 < Date: Thu, 11 Jul 2024 11:59:41 GMT\n1 < Content-Type: application\/json; charset=utf-8\n1 < Transfer-Encoding: chunked\n1 < Connection: keep-alive\n1 < Report-To: {\"group\":\"heroku-nel\",\"max_age\":3600,\"endpoints\":[{\"url\":\"https:\/\/nel.heroku.com\/reports?ts=1720188855&sid=c4c9725f-1ab0-44d8-820f-430df2718e11&s=QnHU8LTTmq4pm0hfZVCSQggEipk9sZWtkmpQWqEv9YI%3D\"}]}\n1 < Reporting-Endpoints: heroku-nel=https:\/\/nel.heroku.com\/reports?ts=1720188855&sid=c4c9725f-1ab0-44d8-820f-430df2718e11&s=QnHU8LTTmq4pm0hfZVCSQggEipk9sZWtkmpQWqEv9YI%3D\n1 < Nel: {\"report_to\":\"heroku-nel\",\"max_age\":3600,\"success_fraction\":0.005,\"failure_fraction\":0.05,\"response_headers\":[\"Via\"]}\n1 < X-Powered-By: Express\n1 < Access-Control-Allow-Origin: *\n1 < Etag: W\/\"2c1-N6Rqerxquq2kgQhL51EiSg4x0R8\"\n1 < Via: 1.1 vegur\n1 < Cache-Control: max-age=14400\n1 < CF-Cache-Status: HIT\n1 < Age: 4646\n1 < Vary: Accept-Encoding\n1 < Server: cloudflare\n1 < CF-RAY: 8a18a0f9eb404272-BOM\n{\"page\":1,\"per_page\":6,\"total\":12,\"total_pages\":2,\"data\":[{\"id\":1,\"name\":\"cerulean\",\"year\":2000,\"color\":\"#98B2D1\",\"pantone_value\":\"15-4020\"},{\"id\":2,\"name\":\"fuchsia rose\",\"year\":2001,\"color\":\"#C74375\",\"pantone_value\":\"17-2031\"},{\"id\":3,\"name\":\"true red\",\"year\":2002,\"color\":\"#BF1932\",\"pantone_value\":\"19-1664\"},{\"id\":4,\"name\":\"aqua sky\",\"year\":2003,\"color\":\"#7BC4C4\",\"pantone_value\":\"14-4811\"},{\"id\":5,\"name\":\"tigerlily\",\"year\":2004,\"color\":\"#E2583E\",\"pantone_value\":\"17-1456\"},{\"id\":6,\"name\":\"blue turquoise\",\"year\":2005,\"color\":\"#53B0AE\",\"pantone_value\":\"15-5217\"}],\"support\":{\"url\":\"https:\/\/reqres.in\/#support-heading\",\"text\":\"To keep ReqRes free, contributions towards server costs are appreciated!\"}}\n\n"},{"result":{"nanos":25600,"startTime":1720699180941,"endTime":1720699180941,"millis":0.0256,"status":"passed"},"step":{"line":42,"prefix":"Then","index":3,"text":"status 200"}}],"line":38,"description":"","durationMillis":67.6561,"failed":false,"tags":["execute"],"executorName":"main","name":"Get List of resources","startTime":1720699180869,"refId":"[5:38]","endTime":1720699180941,"exampleIndex":-1},{"sectionIndex":5,"stepResults":[{"result":{"nanos":409200,"startTime":1720699180963,"endTime":1720699180963,"millis":0.4092,"status":"passed"},"step":{"line":47,"prefix":"Given","index":0,"text":"url baseURL"},"stepLog":"17:29:40.962 karate.env system property was: null \n"},{"result":{"nanos":732600,"startTime":1720699180964,"endTime":1720699180965,"millis":0.7326,"status":"passed"},"step":{"line":48,"prefix":"And","index":1,"text":"path 'unknown\/2'"}},{"result":{"nanos":65186900,"startTime":1720699180965,"endTime":1720699181030,"millis":65.1869,"status":"passed"},"step":{"line":49,"prefix":"When","index":2,"text":"method GET"},"stepLog":"17:29:40.968 request:\n1 > GET https:\/\/reqres.in\/api\/unknown\/2\n1 > Host: reqres.in\n1 > Connection: Keep-Alive\n1 > User-Agent: Apache-HttpClient\/4.5.14 (Java\/21.0.3)\n1 > Accept-Encoding: gzip,deflate\n\n\n17:29:41.028 response time in milliseconds: 58\n1 < 200\n1 < Date: Thu, 11 Jul 2024 11:59:41 GMT\n1 < Content-Type: application\/json; charset=utf-8\n1 < Transfer-Encoding: chunked\n1 < Connection: keep-alive\n1 < Report-To: {\"group\":\"heroku-nel\",\"max_age\":3600,\"endpoints\":[{\"url\":\"https:\/\/nel.heroku.com\/reports?ts=1718897761&sid=c4c9725f-1ab0-44d8-820f-430df2718e11&s=1GBwlU%2BHR5ulWda0uWQm%2FMlGrLEeqXJ1SiJOmbfjnoU%3D\"}]}\n1 < Reporting-Endpoints: heroku-nel=https:\/\/nel.heroku.com\/reports?ts=1718897761&sid=c4c9725f-1ab0-44d8-820f-430df2718e11&s=1GBwlU%2BHR5ulWda0uWQm%2FMlGrLEeqXJ1SiJOmbfjnoU%3D\n1 < Nel: {\"report_to\":\"heroku-nel\",\"max_age\":3600,\"success_fraction\":0.005,\"failure_fraction\":0.05,\"response_headers\":[\"Via\"]}\n1 < X-Powered-By: Express\n1 < Access-Control-Allow-Origin: *\n1 < Etag: W\/\"e8-ov4wWh4\/OY1IMQMqWgskYtOFnVs\"\n1 < Via: 1.1 vegur\n1 < Cache-Control: max-age=14400\n1 < CF-Cache-Status: HIT\n1 < Age: 4318\n1 < Vary: Accept-Encoding\n1 < Server: cloudflare\n1 < CF-RAY: 8a18a0fa7a8242ed-BOM\n{\"data\":{\"id\":2,\"name\":\"fuchsia rose\",\"year\":2001,\"color\":\"#C74375\",\"pantone_value\":\"17-2031\"},\"support\":{\"url\":\"https:\/\/reqres.in\/#support-heading\",\"text\":\"To keep ReqRes free, contributions towards server costs are appreciated!\"}}\n\n"},{"result":{"nanos":21600,"startTime":1720699181030,"endTime":1720699181030,"millis":0.0216,"status":"passed"},"step":{"line":50,"prefix":"Then","index":3,"text":"status 200"}}],"line":46,"description":"","durationMillis":66.3503,"failed":false,"tags":["execute"],"executorName":"main","name":"Get single resource","startTime":1720699180960,"refId":"[6:46]","endTime":1720699181030,"exampleIndex":-1},{"sectionIndex":6,"stepResults":[{"result":{"nanos":312600,"startTime":1720699181046,"endTime":1720699181046,"millis":0.3126,"status":"passed"},"step":{"line":56,"prefix":"Given","index":0,"text":"url baseURL"},"stepLog":"17:29:41.045 karate.env system property was: null \n"},{"result":{"nanos":885400,"startTime":1720699181047,"endTime":1720699181048,"millis":0.8854,"status":"passed"},"step":{"line":57,"prefix":"And","index":1,"text":"path 'unknown\/23'"}},{"result":{"nanos":730367600,"startTime":1720699181048,"endTime":1720699181778,"millis":730.3676,"status":"passed"},"step":{"line":58,"prefix":"When","index":2,"text":"method GET"},"stepLog":"17:29:41.050 request:\n1 > GET https:\/\/reqres.in\/api\/unknown\/23\n1 > Host: reqres.in\n1 > Connection: Keep-Alive\n1 > User-Agent: Apache-HttpClient\/4.5.14 (Java\/21.0.3)\n1 > Accept-Encoding: gzip,deflate\n\n\n17:29:41.774 response time in milliseconds: 721\n1 < 404\n1 < Date: Thu, 11 Jul 2024 11:59:41 GMT\n1 < Content-Type: application\/json; charset=utf-8\n1 < Content-Length: 2\n1 < Connection: keep-alive\n1 < Report-To: {\"group\":\"heroku-nel\",\"max_age\":3600,\"endpoints\":[{\"url\":\"https:\/\/nel.heroku.com\/reports?ts=1720699181&sid=c4c9725f-1ab0-44d8-820f-430df2718e11&s=Jbu18IKzyajcGHOIVgmAgWql78UW%2FJ6%2Bew4KIeqtmQI%3D\"}]}\n1 < Reporting-Endpoints: heroku-nel=https:\/\/nel.heroku.com\/reports?ts=1720699181&sid=c4c9725f-1ab0-44d8-820f-430df2718e11&s=Jbu18IKzyajcGHOIVgmAgWql78UW%2FJ6%2Bew4KIeqtmQI%3D\n1 < Nel: {\"report_to\":\"heroku-nel\",\"max_age\":3600,\"success_fraction\":0.005,\"failure_fraction\":0.05,\"response_headers\":[\"Via\"]}\n1 < X-Powered-By: Express\n1 < Access-Control-Allow-Origin: *\n1 < Etag: W\/\"2-vyGp6PvFo4RvsFtPoIWeCReyIC8\"\n1 < Via: 1.1 vegur\n1 < Cache-Control: max-age=14400\n1 < CF-Cache-Status: EXPIRED\n1 < Vary: Accept-Encoding\n1 < Server: cloudflare\n1 < CF-RAY: 8a18a0fafa6d1be5-BOM\n{}\n\n"},{"result":{"nanos":38800,"startTime":1720699181779,"endTime":1720699181779,"millis":0.0388,"status":"passed"},"step":{"line":59,"prefix":"Then","index":3,"text":"status 404"}}],"line":55,"description":"","durationMillis":731.6044,"failed":false,"tags":["execute"],"executorName":"main","name":"Get single resource(Not Found)","startTime":1720699181044,"refId":"[7:55]","endTime":1720699181779,"exampleIndex":-1}],"callDepth":0,"name":"Online Fake API-Airlines-Get","description":"","resultDate":"2024-07-11 05:29:41 pm","durationMillis":5556.0159,"passedCount":7}